................
----------------------------------------------------------------------
Ran 16 tests in 0.130s

OK
Name             Stmts   Miss Branch BrPart  Cover   Missing
------------------------------------------------------------
Collatz.py          41      0     16      0   100%
TestCollatz.py      74      0      2      0   100%
------------------------------------------------------------
TOTAL              115      0     18      0   100%
